{
    "KPlugin": {
        "Authors": [
            {
                "Email": "mart@kde.org",
                "Name": "Marco Martin",
                "Name[az]": "Marco Martin",
                "Name[ca@valencia]": "Marco Martin",
                "Name[ca]": "Marco Martin",
                "Name[cs]": "Marco Martin",
                "Name[de]": "Marco Martin",
                "Name[en_GB]": "Marco Martin",
                "Name[es]": "Marco Martin",
                "Name[eu]": "Marco Martin",
                "Name[fi]": "Marco Martin",
                "Name[fr]": "Marco Martin",
                "Name[is]": "Marco Martin",
                "Name[it]": "Marco Martin",
                "Name[ka]": "Marco Martin",
                "Name[nl]": "Marco Martin",
                "Name[pa]": "ਮਾਰਕੋ ਮਾਰਟਿਨ",
                "Name[pl]": "Marco Martin",
                "Name[pt]": "Marco Martin",
                "Name[pt_BR]": "Marco Martin",
                "Name[ru]": "Marco Martin",
                "Name[sl]": "Marco Martin",
                "Name[sv]": "Marco Martin",
                "Name[tr]": "Marco Martin",
                "Name[uk]": "Marco Martin",
                "Name[x-test]": "xxMarco Martinxx",
                "Name[zh_CN]": "Marco Martin"
            }
        ],
        "Category": "Containments",
        "Description": "Mobile homescreen with a focus on customizability.",
        "Description[ca@valencia]": "Pantalla d'inici del mòbil enfocada a la personalització.",
        "Description[ca]": "Pantalla d'inici del mòbil enfocada a la personalització.",
        "Description[en_GB]": "Mobile homescreen with a focus on customisability.",
        "Description[es]": "Pantalla de inicio para móvil centrada en la personalización.",
        "Description[eu]": "Norbere gustura egokitzeko gaitasuna helburu duen mugikorreko etxeko pantaila.",
        "Description[fr]": "Un écran d'accueil pour périphérique mobile, avec une attention pour la personnalisation.",
        "Description[is]": "Upphafsskjár síma með áherslu á sérsníðanleika.",
        "Description[it]": "Schermata home mobile con particolare attenzione alla personalizzazione.",
        "Description[ka]": "მობილური საწყისი ეკრანი მორგებადობაზე ფოკუსით.",
        "Description[nl]": "Een startscherm voor een mobiel gericht op aanpasbaarheid.",
        "Description[pa]": "ਮੋਬਾਈਲ ਮੁੱਖ-ਸਕਰੀਨ, ਜੋ ਕਿ ਮਨ ਮੁਤਾਬਕ ਢਾਲਣ ਉੱਤੇ ਕੇਂਦਰਿਤ ਹੈ।",
        "Description[pl]": "Przenośny ekran domowy z naciskiem na dostosowywanie.",
        "Description[pt]": "Ecrã inicial móvel com um foco na personalização.",
        "Description[ru]": "Начальный экран для мобильных устройств с акцентом на возможностях настройки.",
        "Description[sl]": "Mobilni domači zaslon z poudarkom na prilagodljivosti po meri.",
        "Description[sv]": "Hemskärm för mobiler fokuserad på anpassningsbarhet.",
        "Description[tr]": "Özelleştirilebilirlik odaklı taşınabilir ana ekran.",
        "Description[uk]": "Домашня сторінка для мобільних пристроїв із акцентом на можливості налаштовування.",
        "Description[x-test]": "xxMobile homescreen with a focus on customizability.xx",
        "Id": "org.kde.phone.homescreen",
        "License": "GPLv2+",
        "Name": "Folio",
        "Name[ca@valencia]": "Folio",
        "Name[ca]": "Folio",
        "Name[en_GB]": "Folio",
        "Name[es]": "Folio",
        "Name[eu]": "Folio",
        "Name[fr]": "Porte-feuille",
        "Name[is]": "Folio",
        "Name[it]": "Folio",
        "Name[ka]": "ფოლიო",
        "Name[nl]": "Folio",
        "Name[pl]": "Folio",
        "Name[pt]": "Folio",
        "Name[ru]": "Folio",
        "Name[sl]": "Folio",
        "Name[sv]": "Folio",
        "Name[tr]": "Folyo",
        "Name[uk]": "Фоліо",
        "Name[x-test]": "xxFolioxx",
        "ServiceTypes": [
            "Plasma/Applet",
            "Plasma/Containment"
        ],
        "Version": "",
        "Website": ""
    },
    "Keywords": "",
    "X-Plasma-API": "declarativeappletscript",
    "X-Plasma-ContainmentType": "Desktop",
    "X-Plasma-MainScript": "ui/main.qml",
    "X-Plasma-Provides": [
        "org.kde.plasma.launchermenu"
    ]
}
